^C:\USERS\SMIR\SOURCE\REPOS\PROJECT2\PROJECT2\DEBUG\MAIN.OBJ
C:\USERS\SMIR\SOURCE\REPOS\PROJECT2\DEBUG\PROJECT2.EXE
C:\USERS\SMIR\SOURCE\REPOS\PROJECT2\PROJECT2\DEBUG\PROJECT2.ILK
C:\USERS\SMIR\SOURCE\REPOS\PROJECT2\DEBUG\PROJECT2.PDB
